Untitled
…
house_prices <- house_prices %>%
  mutate(log10_price =log10(price),log10_size =log10(sqft_living)    )

house_prices %>% select(price, log10_price, sqft_living, log10_size)

## # A tibble: 21,613 x 4
##      price log10_price sqft_living log10_size
##      <dbl>       <dbl>       <int>      <dbl>
##  1  221900        5.35        1180       3.07
##  2  538000        5.73        2570       3.41
##  3  180000        5.26         770       2.89
##  4  604000        5.78        1960       3.29
##  5  510000        5.71        1680       3.23
##  6 1225000        6.09        5420       3.73
##  7  257500        5.41        1715       3.23
##  8  291850        5.47        1060       3.03
##  9  229500        5.36        1780       3.25
## 10  323000        5.51        1890       3.28
## #  with 21,603 more rows
…
